
digraph {

    bgcolor=transparent;

    rankdir=LR;

    edge [ dir=both; fontname = "Helvetica"; fontsize = 10 ]

    node [ fontname = "Helvetica"; fontsize = 10; ]

    Image [ label = "Image" ]

    Modele [ label = "Modèle" ]

    Image -> Modele [ label="analyse"; arrowhead=open; arrowtail=none; ]

    Image -> Modele [ arrowhead=none; arrowtail=none; style=invis; ]

    Modele -> Image [ label="synthèse"; arrowhead=open; arrowtail=none; ]

    Image -> Image [ label="traitement"; arrowhead=none; arrowtail=open; ]

}

